2019-07-31 06:41:28,553 - ResourceManager : found /templates/macros/array.js.vm with loader org.apache.velocity.runtime.resource.loader.ClasspathResourceLoader
2019-07-31 06:41:28,553 - Velocimacro : added VM includeBuildInfo: source=/templates/macros/page/buildinfo.vm
2019-07-31 06:41:28,553 - ResourceManager : found /templates/macros/page/buildinfo.vm with loader org.apache.velocity.runtime.resource.loader.ClasspathResourceLoader
2019-07-31 06:41:28,554 - Velocimacro : added VM includeClassifications: source=/templates/macros/page/classifications.vm
2019-07-31 06:41:28,554 - ResourceManager : found /templates/macros/page/classifications.vm with loader org.apache.velocity.runtime.resource.loader.ClasspathResourceLoader
2019-07-31 06:41:28,554 - Velocimacro : added VM includeLead: source=/templates/macros/page/lead.vm
2019-07-31 06:41:28,554 - ResourceManager : found /templates/macros/page/lead.vm with loader org.apache.velocity.runtime.resource.loader.ClasspathResourceLoader
2019-07-31 06:41:28,555 - Velocimacro : added VM includeNavigation: source=/templates/macros/page/navigation.vm
2019-07-31 06:41:28,555 - ResourceManager : found /templates/macros/page/navigation.vm with loader org.apache.velocity.runtime.resource.loader.ClasspathResourceLoader
2019-07-31 06:41:28,556 - Velocimacro : added VM includeReportInfo: source=/templates/macros/page/reportInfo.vm
2019-07-31 06:41:28,556 - ResourceManager : found /templates/macros/page/reportInfo.vm with loader org.apache.velocity.runtime.resource.loader.ClasspathResourceLoader
2019-07-31 06:41:28,557 - Velocimacro : added VM includeTitle: source=/templates/macros/page/title.vm
2019-07-31 06:41:28,557 - ResourceManager : found /templates/macros/page/title.vm with loader org.apache.velocity.runtime.resource.loader.ClasspathResourceLoader
2019-07-31 06:41:28,557 - Velocimacro : added VM includeExpandingButtons: source=/templates/macros/report/expandAllButtons.vm
2019-07-31 06:41:28,557 - ResourceManager : found /templates/macros/report/expandAllButtons.vm with loader org.apache.velocity.runtime.resource.loader.ClasspathResourceLoader
2019-07-31 06:41:28,558 - Velocimacro : added VM includeReportTable: source=/templates/macros/report/reportTable.vm
2019-07-31 06:41:28,559 - ResourceManager : found /templates/macros/report/reportTable.vm with loader org.apache.velocity.runtime.resource.loader.ClasspathResourceLoader
2019-07-31 06:41:28,559 - Velocimacro : added VM includeReportHeader: source=/templates/macros/report/reportHeader.vm
2019-07-31 06:41:28,559 - ResourceManager : found /templates/macros/report/reportHeader.vm with loader org.apache.velocity.runtime.resource.loader.ClasspathResourceLoader
2019-07-31 06:41:28,561 - Velocimacro : added VM includeStatsTable: source=/templates/macros/report/statsTable.vm
2019-07-31 06:41:28,561 - ResourceManager : found /templates/macros/report/statsTable.vm with loader org.apache.velocity.runtime.resource.loader.ClasspathResourceLoader
2019-07-31 06:41:28,562 - Velocimacro : added VM includeBrief: source=/templates/macros/json/brief.vm
2019-07-31 06:41:28,562 - ResourceManager : found /templates/macros/json/brief.vm with loader org.apache.velocity.runtime.resource.loader.ClasspathResourceLoader
2019-07-31 06:41:28,563 - Velocimacro : added VM includeDocString: source=/templates/macros/json/docstring.vm
2019-07-31 06:41:28,563 - ResourceManager : found /templates/macros/json/docstring.vm with loader org.apache.velocity.runtime.resource.loader.ClasspathResourceLoader
2019-07-31 06:41:28,563 - Velocimacro : added VM includeDuration: source=/templates/macros/json/duration.vm
2019-07-31 06:41:28,563 - ResourceManager : found /templates/macros/json/duration.vm with loader org.apache.velocity.runtime.resource.loader.ClasspathResourceLoader
2019-07-31 06:41:28,564 - Velocimacro : added VM includeElement: source=/templates/macros/json/element.vm
2019-07-31 06:41:28,564 - ResourceManager : found /templates/macros/json/element.vm with loader org.apache.velocity.runtime.resource.loader.ClasspathResourceLoader
2019-07-31 06:41:28,566 - Velocimacro : added VM includeEmbeddings: source=/templates/macros/json/embeddings.vm
2019-07-31 06:41:28,567 - Velocimacro : added VM includeHtmlEmbedding: source=/templates/macros/json/embeddings.vm
2019-07-31 06:41:28,567 - Velocimacro : added VM includeImageEmbedding: source=/templates/macros/json/embeddings.vm
2019-07-31 06:41:28,567 - Velocimacro : added VM includeImageReferenceEmbedding: source=/templates/macros/json/embeddings.vm
2019-07-31 06:41:28,567 - Velocimacro : added VM includeTextEmbedding: source=/templates/macros/json/embeddings.vm
2019-07-31 06:41:28,567 - Velocimacro : added VM includeUnknownEmbedding: source=/templates/macros/json/embeddings.vm
2019-07-31 06:41:28,567 - ResourceManager : found /templates/macros/json/embeddings.vm with loader org.apache.velocity.runtime.resource.loader.ClasspathResourceLoader
2019-07-31 06:41:28,568 - Velocimacro : added VM includeHooks: source=/templates/macros/json/hooks.vm
2019-07-31 06:41:28,568 - ResourceManager : found /templates/macros/json/hooks.vm with loader org.apache.velocity.runtime.resource.loader.ClasspathResourceLoader
2019-07-31 06:41:28,569 - Velocimacro : added VM includeOutput: source=/templates/macros/json/output.vm
2019-07-31 06:41:28,569 - ResourceManager : found /templates/macros/json/output.vm with loader org.apache.velocity.runtime.resource.loader.ClasspathResourceLoader
2019-07-31 06:41:28,570 - Velocimacro : added VM includeMessage: source=/templates/macros/json/message.vm
2019-07-31 06:41:28,570 - ResourceManager : found /templates/macros/json/message.vm with loader org.apache.velocity.runtime.resource.loader.ClasspathResourceLoader
2019-07-31 06:41:28,571 - Velocimacro : added VM includeSteps: source=/templates/macros/json/steps.vm
2019-07-31 06:41:28,571 - ResourceManager : found /templates/macros/json/steps.vm with loader org.apache.velocity.runtime.resource.loader.ClasspathResourceLoader
2019-07-31 06:41:28,572 - Velocimacro : added VM includeTags: source=/templates/macros/json/tags.vm
2019-07-31 06:41:28,572 - ResourceManager : found /templates/macros/json/tags.vm with loader org.apache.velocity.runtime.resource.loader.ClasspathResourceLoader
2019-07-31 06:41:28,574 - ResourceManager : found /templates/footer.vm with loader org.apache.velocity.runtime.resource.loader.ClasspathResourceLoader
2019-07-31 06:41:28,575 - ResourceManager : found templates/generators/overviewFailures.vm with loader org.apache.velocity.runtime.resource.loader.ClasspathResourceLoader
2019-07-31 06:41:28,576 - ResourceManager : found /templates/headers.vm with loader org.apache.velocity.runtime.resource.loader.ClasspathResourceLoader
2019-07-31 06:41:28,576 - ResourceManager : found /templates/head.vm with loader org.apache.velocity.runtime.resource.loader.ClasspathResourceLoader
2019-07-31 06:41:28,577 - Velocimacro : added VM stringArray: source=/templates/macros/array.js.vm
2019-07-31 06:41:28,577 - Velocimacro : added VM numberArray: source=/templates/macros/array.js.vm
2019-07-31 06:41:28,577 - ResourceManager : found /templates/macros/array.js.vm with loader org.apache.velocity.runtime.resource.loader.ClasspathResourceLoader
2019-07-31 06:41:28,578 - Velocimacro : added VM includeBuildInfo: source=/templates/macros/page/buildinfo.vm
2019-07-31 06:41:28,578 - ResourceManager : found /templates/macros/page/buildinfo.vm with loader org.apache.velocity.runtime.resource.loader.ClasspathResourceLoader
2019-07-31 06:41:28,578 - Velocimacro : added VM includeClassifications: source=/templates/macros/page/classifications.vm
2019-07-31 06:41:28,578 - ResourceManager : found /templates/macros/page/classifications.vm with loader org.apache.velocity.runtime.resource.loader.ClasspathResourceLoader
2019-07-31 06:41:28,579 - Velocimacro : added VM includeLead: source=/templates/macros/page/lead.vm
2019-07-31 06:41:28,579 - ResourceManager : found /templates/macros/page/lead.vm with loader org.apache.velocity.runtime.resource.loader.ClasspathResourceLoader
2019-07-31 06:41:28,580 - Velocimacro : added VM includeNavigation: source=/templates/macros/page/navigation.vm
2019-07-31 06:41:28,580 - ResourceManager : found /templates/macros/page/navigation.vm with loader org.apache.velocity.runtime.resource.loader.ClasspathResourceLoader
2019-07-31 06:41:28,580 - Velocimacro : added VM includeReportInfo: source=/templates/macros/page/reportInfo.vm
2019-07-31 06:41:28,580 - ResourceManager : found /templates/macros/page/reportInfo.vm with loader org.apache.velocity.runtime.resource.loader.ClasspathResourceLoader
2019-07-31 06:41:28,581 - Velocimacro : added VM includeTitle: source=/templates/macros/page/title.vm
2019-07-31 06:41:28,581 - ResourceManager : found /templates/macros/page/title.vm with loader org.apache.velocity.runtime.resource.loader.ClasspathResourceLoader
2019-07-31 06:41:28,582 - Velocimacro : added VM includeExpandingButtons: source=/templates/macros/report/expandAllButtons.vm
2019-07-31 06:41:28,582 - ResourceManager : found /templates/macros/report/expandAllButtons.vm with loader org.apache.velocity.runtime.resource.loader.ClasspathResourceLoader
2019-07-31 06:41:28,583 - Velocimacro : added VM includeReportTable: source=/templates/macros/report/reportTable.vm
2019-07-31 06:41:28,583 - ResourceManager : found /templates/macros/report/reportTable.vm with loader org.apache.velocity.runtime.resource.loader.ClasspathResourceLoader
2019-07-31 06:41:28,584 - Velocimacro : added VM includeReportHeader: source=/templates/macros/report/reportHeader.vm
2019-07-31 06:41:28,584 - ResourceManager : found /templates/macros/report/reportHeader.vm with loader org.apache.velocity.runtime.resource.loader.ClasspathResourceLoader
2019-07-31 06:41:28,585 - Velocimacro : added VM includeStatsTable: source=/templates/macros/report/statsTable.vm
2019-07-31 06:41:28,585 - ResourceManager : found /templates/macros/report/statsTable.vm with loader org.apache.velocity.runtime.resource.loader.ClasspathResourceLoader
2019-07-31 06:41:28,586 - Velocimacro : added VM includeBrief: source=/templates/macros/json/brief.vm
2019-07-31 06:41:28,586 - ResourceManager : found /templates/macros/json/brief.vm with loader org.apache.velocity.runtime.resource.loader.ClasspathResourceLoader
2019-07-31 06:41:28,588 - Velocimacro : added VM includeDocString: source=/templates/macros/json/docstring.vm
2019-07-31 06:41:28,588 - ResourceManager : found /templates/macros/json/docstring.vm with loader org.apache.velocity.runtime.resource.loader.ClasspathResourceLoader
2019-07-31 06:41:28,589 - Velocimacro : added VM includeDuration: source=/templates/macros/json/duration.vm
2019-07-31 06:41:28,589 - ResourceManager : found /templates/macros/json/duration.vm with loader org.apache.velocity.runtime.resource.loader.ClasspathResourceLoader
2019-07-31 06:41:28,590 - Velocimacro : added VM includeElement: source=/templates/macros/json/element.vm
2019-07-31 06:41:28,590 - ResourceManager : found /templates/macros/json/element.vm with loader org.apache.velocity.runtime.resource.loader.ClasspathResourceLoader
2019-07-31 06:41:28,592 - Velocimacro : added VM includeEmbeddings: source=/templates/macros/json/embeddings.vm
2019-07-31 06:41:28,592 - Velocimacro : added VM includeHtmlEmbedding: source=/templates/macros/json/embeddings.vm
2019-07-31 06:41:28,592 - Velocimacro : added VM includeImageEmbedding: source=/templates/macros/json/embeddings.vm
2019-07-31 06:41:28,592 - Velocimacro : added VM includeImageReferenceEmbedding: source=/templates/macros/json/embeddings.vm
2019-07-31 06:41:28,592 - Velocimacro : added VM includeTextEmbedding: source=/templates/macros/json/embeddings.vm
2019-07-31 06:41:28,592 - Velocimacro : added VM includeUnknownEmbedding: source=/templates/macros/json/embeddings.vm
2019-07-31 06:41:28,593 - ResourceManager : found /templates/macros/json/embeddings.vm with loader org.apache.velocity.runtime.resource.loader.ClasspathResourceLoader
2019-07-31 06:41:28,594 - Velocimacro : added VM includeHooks: source=/templates/macros/json/hooks.vm
2019-07-31 06:41:28,594 - ResourceManager : found /templates/macros/json/hooks.vm with loader org.apache.velocity.runtime.resource.loader.ClasspathResourceLoader
2019-07-31 06:41:28,595 - Velocimacro : added VM includeOutput: source=/templates/macros/json/output.vm
2019-07-31 06:41:28,595 - ResourceManager : found /templates/macros/json/output.vm with loader org.apache.velocity.runtime.resource.loader.ClasspathResourceLoader
2019-07-31 06:41:28,596 - Velocimacro : added VM includeMessage: source=/templates/macros/json/message.vm
2019-07-31 06:41:28,596 - ResourceManager : found /templates/macros/json/message.vm with loader org.apache.velocity.runtime.resource.loader.ClasspathResourceLoader
2019-07-31 06:41:28,597 - Velocimacro : added VM includeSteps: source=/templates/macros/json/steps.vm
2019-07-31 06:41:28,597 - ResourceManager : found /templates/macros/json/steps.vm with loader org.apache.velocity.runtime.resource.loader.ClasspathResourceLoader
2019-07-31 06:41:28,598 - Velocimacro : added VM includeTags: source=/templates/macros/json/tags.vm
2019-07-31 06:41:28,598 - ResourceManager : found /templates/macros/json/tags.vm with loader org.apache.velocity.runtime.resource.loader.ClasspathResourceLoader
2019-07-31 06:41:28,598 - ResourceManager : found /templates/footer.vm with loader org.apache.velocity.runtime.resource.loader.ClasspathResourceLoader
