2019-07-31 06:41:28,593 - ResourceManager : found /templates/macros/json/embeddings.vm with loader org.apache.velocity.runtime.resource.loader.ClasspathResourceLoader
2019-07-31 06:41:28,594 - Velocimacro : added VM includeHooks: source=/templates/macros/json/hooks.vm
2019-07-31 06:41:28,594 - ResourceManager : found /templates/macros/json/hooks.vm with loader org.apache.velocity.runtime.resource.loader.ClasspathResourceLoader
2019-07-31 06:41:28,595 - Velocimacro : added VM includeOutput: source=/templates/macros/json/output.vm
2019-07-31 06:41:28,595 - ResourceManager : found /templates/macros/json/output.vm with loader org.apache.velocity.runtime.resource.loader.ClasspathResourceLoader
2019-07-31 06:41:28,596 - Velocimacro : added VM includeMessage: source=/templates/macros/json/message.vm
2019-07-31 06:41:28,596 - ResourceManager : found /templates/macros/json/message.vm with loader org.apache.velocity.runtime.resource.loader.ClasspathResourceLoader
2019-07-31 06:41:28,597 - Velocimacro : added VM includeSteps: source=/templates/macros/json/steps.vm
2019-07-31 06:41:28,597 - ResourceManager : found /templates/macros/json/steps.vm with loader org.apache.velocity.runtime.resource.loader.ClasspathResourceLoader
2019-07-31 06:41:28,598 - Velocimacro : added VM includeTags: source=/templates/macros/json/tags.vm
2019-07-31 06:41:28,598 - ResourceManager : found /templates/macros/json/tags.vm with loader org.apache.velocity.runtime.resource.loader.ClasspathResourceLoader
2019-07-31 06:41:28,598 - ResourceManager : found /templates/footer.vm with loader org.apache.velocity.runtime.resource.loader.ClasspathResourceLoader
